27 51 112
54 62 113
81 93 111
108 248 128
135 310 128
162 558 144
189 651 145
216 992 179
243 1116 179
270 1550 182
297 1705 182
324 2232 183
351 2418 183
378 3038 217
405 3255 217
432 3968 238
459 4216 238
486 5022 238
513 5301 238
540 6200 262
567 6510 262
594 7502 262
621 7843 262
648 8928 262
675 9300 262
702 10478 262
729 10881 262
756 12152 268
783 12586 268
810 13950 276
837 14415 276
864 15872 276
891 16368 276
918 17918 279
945 18445 279
972 20088 279
999 20646 279
1026 22382 279
1053 22971 279
1080 24800 282
1107 25420 282
1134 27342 308
1161 27993 308
1188 30008 308
1215 30690 308
1242 32798 308
1269 33511 308
1296 35712 324
1323 36456 324
1350 38750 324
1377 39525 324
1404 41912 324
1431 42718 324
1458 45198 324
1485 46035 324
1512 48608 324
1539 49476 324
1566 52142 324
1593 53041 340
1620 55800 340
1647 56730 340
1674 59582 340
1701 60543 340
1728 63488 340
1755 64480 340
1782 67518 340
1809 68541 340
1836 71672 340
1863 72726 340
1890 75950 340
1917 77035 351
1944 80352 351
1971 81468 351
1998 84878 351
2025 86025 351
2052 89528 351
2079 90706 351
2106 94302 351
2133 95511 351
2160 99200 351
2187 100440 351
2214 104222 351
2241 105493 351
2268 109368 354
2295 110670 354
2322 114638 354
2349 115971 354
2376 120032 354
2403 121396 354
2430 125550 354
2457 126945 354
2484 131192 354
2511 132618 354
2538 136958 354
2565 138415 354
2592 142848 375
2619 144336 375
2646 148862 375
2673 150381 375
2700 155000 375
2727 156550 383
2754 161262 383
2781 162843 383
2808 167648 383
2835 169260 383
2862 174158 383
2889 175801 383
2916 180792 383
2943 182466 383
2970 187550 383
2997 189255 383
3024 194432 383
3051 196168 383
3078 201438 383
3105 203205 383
3132 208568 383
3159 210366 383
3186 215822 383
3213 217651 386
3240 223200 386
3267 225060 386
3294 230702 443
3321 232593 443
3348 238328 443
3375 240250 443
3402 246078 443
3429 248031 443
3456 253952 443
3483 255936 443
3510 261950 443
3537 263965 443
3564 270072 443
3591 272118 443
3618 278318 443
3645 280395 443
3672 286688 443
3699 288796 443
3726 295182 443
3753 297321 443
3780 303800 443
3807 305970 443
3834 312542 443
3861 314743 443
3888 321408 443
3915 323640 443
3942 330398 443
3969 332661 443
3996 339512 443
4023 341806 443
4050 348750 443
4077 351075 443
4104 358112 443
4131 360468 443
4158 367598 443
4185 369985 443
4212 377208 443
4239 379626 443
4266 386942 443
4293 389391 443
4320 396800 443
4347 399280 443
4374 406782 443
4401 409293 443
4428 416888 449
4455 419430 449
4482 427118 449
4509 429691 449
4536 437472 449
4563 440076 449
4590 447950 449
4617 450585 449
4644 458552 449
4671 461218 449
4698 469278 449
4725 471975 449
4752 480128 449
4779 482856 449
4806 491102 449
4833 493861 449
4860 502200 449
4887 504990 449
4914 513422 470
4941 516243 470
4968 524768 470
4995 527620 470
5022 536238 470
5049 539121 470
5076 547832 470
5103 550746 470
5130 559550 470
5157 562495 470
5184 571392 470
5211 574368 470
5238 583358 470
5265 586365 470
5292 595448 470
5319 598486 470
5346 607662 470
5373 610731 470
5400 620000 470
5427 623100 470
5454 632462 509
5481 635593 509
5508 645048 509
5535 648210 509
5562 657758 509
5589 660951 509
5616 670592 509
5643 673816 509
5670 683550 509
5697 686805 509
5724 696632 509
5751 699918 509
5778 709838 509
5805 713155 509
5832 723168 509
5859 726516 509
5886 736622 509
5913 740001 509
5940 750200 509
5967 753610 509
5994 763902 509
6021 767343 509
6048 777728 509
6075 781200 509
6102 791678 509
6129 795181 509
6156 805752 509
6183 809286 509
6210 819950 509
6237 823515 509
6264 834272 509
6291 837868 525
6318 848718 525
6345 852345 525
6372 863288 525
6399 866946 525
6426 877982 525
6453 881671 525
6480 892800 525
6507 896520 525
6534 907742 525
6561 911493 525
6588 922808 525
6615 926590 525
6642 937998 525
6669 941811 525
6696 953312 525
6723 957156 525
6750 968750 525
