99800 353555
527669 110671
985183 641745
801707 736027
590039 22738
260478 889535
50634 426052
822147 678937
623955 682215
754071 483753
171359 223635
832438 33035
663308 657508
559835 404571
232022 857679
10445 469141
985463 18060
442016 694135
648631 360084
195502 386099
943559 771545
346020 230234
50691 539890
173631 965379
432622 70083
174264 246694
107454 724503
609661 748485
26439 47143
884515 245822
58901 349093
994025 729065
116197 541500
565963 409780
211186 626447
651603 485188
439746 80657
864857 526319
568667 870424
787231 472121
673070 742571
81592 918182
434977 656329
568368 974877
520619 840026
156637 457633
789184 637169
105204 588373
562075 511334
848491 853192
125652 972990
119978 117403
514115 224735
422162 848393
197875 566435
253369 184573
19753 277907
161487 171660
364941 882463
780176 982109
908329 126227
423066 867494
603908 614225
309078 156997
646153 225944
33902 739772
895600 399460
781775 54403
507397 111564
23716 635366
567079 885305
660155 704896
60831 263671
41836 115879
66152 645540
943437 380775
932902 426555
209875 96253
787939 7396
55816 697058
761494 828348
579803 929909
197803 414360
100738 478168
137172 916539
861418 873159
246586 255041
247615 652739
4219 278384
949210 735954
708558 503469
67149 550405
569271 949832
157667 103999
8892 638224
809157 734930
207120 74331
498282 775383
184772 338837
287741 4389
362678 280669
141366 264226
924660 928757
488248 434371
737094 371451
124014 501391
105607 710830
592226 125410
281937 740171
687021 829079
685345 612626
607808 676633
58335 59720
882411 7584
248144 777443
591464 201858
313501 45672
925391 365602
887326 15768
669820 221425
128594 252304
297883 951211
357846 90845
581789 16670
152760 419530
991187 351922
111056 969081
517600 409063
873642 896381
501863 720802
741530 715491
257475 418258
271820 51747
255446 146271
793267 978321
589993 14220
441345 902711
588120 819555
438468 713115
824104 397543
195467 272661
660369 140603
110503 259469
217668 98710
909632 979068
338031 539758
890485 648031
560089 43459
905158 768822
741162 853346
738236 228104
477338 989740
366703 64658
156414 697562
876942 53944
570259 30946
383467 106626
103511 554027
107082 88994
855201 594890
793564 460154
405054 698385
53680 29099
502193 645557
753639 210821
629208 842268
175840 903557
534884 80704
791687 968753
293026 228571
874796 256720
433675 210509
883814 261265
315925 311854
80565 575219
545948 291090
693423 942442
659596 733112
323825 942479
697184 960951
694242 152069
58508 239843
349480 611982
811893 450613
823804 285444
587222 85752
859456 878618
795161 515137
318308 36841
279766 966002
457696 760044
172386 827517
387364 818767
29800 369340
94345 15813
25678 920226
819336 300358
146501 169089
396376 256408
870468 743519
768130 528385
875406 223889
710591 881222
736499 965145
909609 483682
247964 533426
444741 238207
743490 93032
371462 692248
779036 309217
280769 633450
293506 745053
780485 720164
859194 568778
777683 146954
935283 290047
361736 67297
784016 851046
22144 426545
620924 941504
26203 241208
375230 23097
816092 831963
680378 534144
410192 595752
144835 287612
299293 522360
808448 844146
446578 337052
